Meteor version: 1.5

Eval ID:        meteor-1.5-wo-en-norm-0.85_0.2_0.6_0.75-ex_st_sy_pa-1.0_0.6_0.8_0.6

Language:       English
Format:         plaintext
Task:           Ranking
Modules:        exact stem synonym paraphrase
Weights:        1.0 0.6 0.8 0.6
Parameters:     0.85 0.2 0.6 0.75

Segment 1 score:	0.3917173039593112
Segment 2 score:	0.21011895651631268
Segment 3 score:	0.5577476516127472
Segment 4 score:	0.32941432532330556
Segment 5 score:	0.33907799189550236
Segment 6 score:	0.30455820862479893
Segment 7 score:	0.359261792696012
Segment 8 score:	0.35995370771244617
Segment 9 score:	0.33670635052890746
Segment 10 score:	0.23869920646203657
Segment 11 score:	0.34622981382288953
Segment 12 score:	0.4450910888907203
Segment 13 score:	0.24992143088359084
Segment 14 score:	0.42524866665607836
Segment 15 score:	0.24912803715056367
Segment 16 score:	0.36230044360183705
Segment 17 score:	0.4337389988176927
Segment 18 score:	0.43359043525648394
Segment 19 score:	0.3063800623745254
Segment 20 score:	0.4836230865160803
Segment 21 score:	0.4128249364418639
Segment 22 score:	0.8377153218495014
Segment 23 score:	0.3643617102995663
Segment 24 score:	0.3503117755987507
Segment 25 score:	0.39356190695414617
Segment 26 score:	0.22952442613546728
Segment 27 score:	0.30551176550387205
Segment 28 score:	0.23171589252406985
Segment 29 score:	0.39639294837038075
Segment 30 score:	0.32570954015809406
Segment 31 score:	0.43743308105039547
Segment 32 score:	0.345150396937156
Segment 33 score:	0.35676672874247123
Segment 34 score:	0.3294853199909076
Segment 35 score:	0.3568330242611599
Segment 36 score:	0.336736203994758
Segment 37 score:	0.31442978106922537
Segment 38 score:	1.0
Segment 39 score:	0.96
Segment 40 score:	0.24473231358348443
Segment 41 score:	0.1543256156268828
Segment 42 score:	0.3545756419613114
Segment 43 score:	0.24454148471615722
Segment 44 score:	0.3433046085660736
Segment 45 score:	0.4901438472331511
Segment 46 score:	0.44186077386015105
Segment 47 score:	0.2241033504682232
Segment 48 score:	0.21380276597250136
Segment 49 score:	0.2834495286007286
Segment 50 score:	0.33929740875437453
Segment 51 score:	0.523270557216095
Segment 52 score:	0.9466666666666665
Segment 53 score:	0.4037279866967089
Segment 54 score:	0.46930060806913493
Segment 55 score:	0.3020754263379733
Segment 56 score:	0.40771028378239227
Segment 57 score:	0.1314168377823409
Segment 58 score:	0.37722054172319186
Segment 59 score:	0.28364349386587057
Segment 60 score:	0.24001389315553406
Segment 61 score:	0.42364526863392865
Segment 62 score:	0.3743291038831431
Segment 63 score:	0.32601998758676903
Segment 64 score:	0.5773349014600165
Segment 65 score:	0.34466867419398184
Segment 66 score:	0.20899792342239729
Segment 67 score:	0.1577400960478226
Segment 68 score:	0.45841260231483133
Segment 69 score:	0.43324500202108396
Segment 70 score:	0.25587091664392736
Segment 71 score:	0.21956217570646672
Segment 72 score:	0.4778515340912863
Segment 73 score:	0.17190599021120417
Segment 74 score:	0.4409061058967425
Segment 75 score:	0.2609726315834128
Segment 76 score:	0.4894845842304888
Segment 77 score:	0.3039630973199024
Segment 78 score:	0.40042046327150227
Segment 79 score:	0.48244196677668877
Segment 80 score:	0.15409217191073918
Segment 81 score:	0.29876649516506854
Segment 82 score:	0.29394854650220636
Segment 83 score:	0.0976454742108269
Segment 84 score:	0.28145881932453315
Segment 85 score:	0.4182580125170612
Segment 86 score:	0.24151610171826418
Segment 87 score:	1.0
Segment 88 score:	0.23955874790789347
Segment 89 score:	0.4300766721500004
Segment 90 score:	0.1773033537413343
Segment 91 score:	0.3230616071648578
Segment 92 score:	0.34930148296499425
Segment 93 score:	0.3641318174921473
Segment 94 score:	0.3422270791889469
Segment 95 score:	0.31158434014690745
Segment 96 score:	0.3147700559103939
Segment 97 score:	0.31453972316067913
Segment 98 score:	0.3753937309645268
Segment 99 score:	0.423167817911901
Segment 100 score:	0.30952237439316826
Segment 101 score:	0.3994190729892483
Segment 102 score:	0.514288005728494
Segment 103 score:	0.38390015454977033
Segment 104 score:	0.318446441348217
Segment 105 score:	0.3078466577372173
Segment 106 score:	0.44633598404818026
Segment 107 score:	0.39812339392834006
Segment 108 score:	0.3312825378707514
Segment 109 score:	0.18732143608718646
Segment 110 score:	0.34147873535950873
Segment 111 score:	0.5119997784288406
Segment 112 score:	0.30950493838893145
Segment 113 score:	0.1917352737472397
Segment 114 score:	0.43324500202108396
Segment 115 score:	0.31292776040265585
Segment 116 score:	1.0
Segment 117 score:	0.42655753674432
Segment 118 score:	0.34893696210023417
Segment 119 score:	0.25948644390515124
Segment 120 score:	0.34715667740172307
Segment 121 score:	0.19981768509755551
Segment 122 score:	0.2697428679655485
Segment 123 score:	0.33379406317211907
Segment 124 score:	0.5797636520859395
Segment 125 score:	0.23197307950485535
Segment 126 score:	0.22248964180202374
Segment 127 score:	0.4077313566301484
Segment 128 score:	0.24741867814163385
Segment 129 score:	0.26557509739080626
Segment 130 score:	0.294192105026447
Segment 131 score:	0.19511441261949627
Segment 132 score:	0.27071516913598487
Segment 133 score:	0.30581792627756105
Segment 134 score:	0.34910907299570076
Segment 135 score:	0.47599920176946053
Segment 136 score:	0.4322915139467762
Segment 137 score:	0.6253391348233649
Segment 138 score:	0.32174589638479373
Segment 139 score:	0.49306836398080367
Segment 140 score:	0.41137199052442563
Segment 141 score:	0.4076114449257178
Segment 142 score:	0.46559214231004015
Segment 143 score:	0.5071215053141285
Segment 144 score:	0.382704335297492
Segment 145 score:	0.2951841375706322
Segment 146 score:	0.3398014554281865
Segment 147 score:	0.33829501034602916
Segment 148 score:	0.325876685743034
Segment 149 score:	0.37100556273578683
Segment 150 score:	0.3677815592552387
Segment 151 score:	1.0
Segment 152 score:	1.0
Segment 153 score:	0.3390381240614847
Segment 154 score:	0.2458058866788338
Segment 155 score:	0.3598264873991153
Segment 156 score:	0.5185584298046291
Segment 157 score:	0.27080946462031547
Segment 158 score:	0.29394503168504593
Segment 159 score:	0.45256785980016173
Segment 160 score:	0.5651322017933826
Segment 161 score:	0.23155099919744213
Segment 162 score:	0.2672195124726548
Segment 163 score:	0.16319184651256627
Segment 164 score:	0.42457161660502357
Segment 165 score:	0.3957172155358104
Segment 166 score:	0.44730412621033167
Segment 167 score:	0.4256487551731704
Segment 168 score:	0.37640369367359255
Segment 169 score:	0.3806843520375863
Segment 170 score:	0.1632166594043205
Segment 171 score:	0.236201637402827
Segment 172 score:	0.3619876326419371
Segment 173 score:	0.24907367293606586
Segment 174 score:	0.2888112573352867
Segment 175 score:	0.43020596608117734
Segment 176 score:	0.2835638587945531
Segment 177 score:	0.2639722589863694
Segment 178 score:	0.2798341630225274
Segment 179 score:	0.3710717207871368
Segment 180 score:	0.2387679820223533
Segment 181 score:	0.4356547940453396
Segment 182 score:	0.32179850915188246
Segment 183 score:	0.36624144037311596
Segment 184 score:	0.45425643388452647
Segment 185 score:	0.2822815382248381
Segment 186 score:	0.37187448446654303
Segment 187 score:	0.36751858619690964
Segment 188 score:	0.28329159649349844
Segment 189 score:	0.394588637047997
Segment 190 score:	0.3769855003228084
Segment 191 score:	0.4049827647003771
Segment 192 score:	0.4805812318854282
Segment 193 score:	0.40391483707176334
Segment 194 score:	0.3530766461812311
Segment 195 score:	0.2977279655564478
Segment 196 score:	0.2919930181979264
Segment 197 score:	0.39790960548179366
Segment 198 score:	0.5277499160716413
Segment 199 score:	0.3970821648912927
Segment 200 score:	0.3234771742840022
Segment 201 score:	0.30028084533532573
Segment 202 score:	0.3868975455632543
Segment 203 score:	0.3427235843881535
Segment 204 score:	0.5063345422689091
Segment 205 score:	0.3904947585570599
Segment 206 score:	0.3417646745111195
Segment 207 score:	0.4628997901687506
Segment 208 score:	0.3446732995208429
Segment 209 score:	0.18938376250582525
Segment 210 score:	0.2904777966159288
Segment 211 score:	0.3191612259855485
Segment 212 score:	0.22741612460982946
Segment 213 score:	0.1442776766369126
Segment 214 score:	0.5177780700741892
Segment 215 score:	0.2357205614762365
Segment 216 score:	0.16955684007707128
Segment 217 score:	0.2788038670190842
Segment 218 score:	0.33091500230441734
Segment 219 score:	0.32568469314947496
Segment 220 score:	0.18367939016093227
Segment 221 score:	0.2923163691098317
Segment 222 score:	0.2850305380857016
Segment 223 score:	0.2782019988401157
Segment 224 score:	0.5033678042321144
Segment 225 score:	0.21789883268482493
Segment 226 score:	0.5035003428355946
Segment 227 score:	0.14593698175787725
Segment 228 score:	0.3294273531188452
Segment 229 score:	0.4189352025607019
Segment 230 score:	0.36448442672496556
Segment 231 score:	0.30690539576808124
Segment 232 score:	0.4377804334049218
Segment 233 score:	0.3005688207776572
Segment 234 score:	0.26849908679272244
Segment 235 score:	0.5165783619902422
Segment 236 score:	0.2500888282839401
Segment 237 score:	0.19315895372233402
Segment 238 score:	0.3981182621292058
Segment 239 score:	0.4158492175099096
Segment 240 score:	0.37637074681057037
Segment 241 score:	0.47453849005551213
Segment 242 score:	0.19544034745478156
Segment 243 score:	0.3862768530043428
Segment 244 score:	0.2595780452189183
Segment 245 score:	0.44823333979421487
Segment 246 score:	0.2109141346671006
Segment 247 score:	0.38006530353235035
Segment 248 score:	0.4827871370542522
Segment 249 score:	0.34134684613625255
Segment 250 score:	0.3938989760769505
Segment 251 score:	0.3733451236040434
Segment 252 score:	0.3563203126956399
Segment 253 score:	0.33789275389902
Segment 254 score:	0.48771857691342957
Segment 255 score:	0.3427769947674363
Segment 256 score:	0.33369395701990195
Segment 257 score:	0.37568649103615365
Segment 258 score:	0.4283352142177041
Segment 259 score:	0.44391359923757023
Segment 260 score:	0.558785461976905
Segment 261 score:	0.5529045059878814
Segment 262 score:	0.45899682039590295
Segment 263 score:	0.26254062980137766
Segment 264 score:	0.4651900689935462
Segment 265 score:	0.4632327431674629
Segment 266 score:	0.22111019861627895
Segment 267 score:	0.11573688873501449
Segment 268 score:	0.3144902446528255
Segment 269 score:	0.5216707381006828
Segment 270 score:	0.43602534190601433
Segment 271 score:	0.21613925562671915
Segment 272 score:	0.4107412829383339
Segment 273 score:	0.26119452877201726
Segment 274 score:	0.3841178679587527
Segment 275 score:	0.08045300138194739
Segment 276 score:	0.2146924037213831
Segment 277 score:	0.18862481466337083
Segment 278 score:	0.36750182656417746
Segment 279 score:	0.30488240885066725
Segment 280 score:	0.14853875570811437
Segment 281 score:	0.35455934298161945
Segment 282 score:	0.5092294136250987
Segment 283 score:	0.2196944667808102
Segment 284 score:	0.3488348024246495
Segment 285 score:	0.4028535592733988
Segment 286 score:	0.2901275082053553
Segment 287 score:	0.2646542495505028
Segment 288 score:	0.44944080602068925
Segment 289 score:	0.30575430437498674
Segment 290 score:	0.26393367307859716
Segment 291 score:	0.4819507570141499
Segment 292 score:	0.3434047877890798
Segment 293 score:	0.4722586994284916
Segment 294 score:	0.5106898039957057
Segment 295 score:	0.3983817571118762
Segment 296 score:	0.2761894990296724
Segment 297 score:	0.25770813260032566
Segment 298 score:	0.23787265123310392
Segment 299 score:	0.40721889780575543
Segment 300 score:	0.20253164556962028
Segment 301 score:	0.2674437841366755
Segment 302 score:	0.34514789845561883
Segment 303 score:	0.25804381843565066
Segment 304 score:	0.40665750707918175
Segment 305 score:	0.33069822595803994
Segment 306 score:	0.368178958262792
Segment 307 score:	0.24119564691133655
Segment 308 score:	0.41845354654201056
Segment 309 score:	0.30403450825596046
Segment 310 score:	0.3683521261255509
Segment 311 score:	0.2764714611819851
Segment 312 score:	0.4450761827295699
Segment 313 score:	0.43056777389319395
Segment 314 score:	0.40629016253520556
Segment 315 score:	0.29915944564074143
Segment 316 score:	0.5821979692082009
Segment 317 score:	0.3102044272654479
Segment 318 score:	0.5100956728300127
Segment 319 score:	0.3660303923542724
Segment 320 score:	0.2558319135902014
Segment 321 score:	0.21505376344086025
Segment 322 score:	0.20700584291833207
Segment 323 score:	0.2898137416308132
Segment 324 score:	0.41122477969341514
Segment 325 score:	0.2813186813186814
Segment 326 score:	0.3226430917936898
Segment 327 score:	0.4776696620223255
Segment 328 score:	1.0
Segment 329 score:	0.4017247624284864
Segment 330 score:	0.24911771592483622
Segment 331 score:	0.4169795506592981
Segment 332 score:	0.24300478213532173
Segment 333 score:	0.5075522525549482
Segment 334 score:	0.28538147758905075
Segment 335 score:	0.23246277671776186
Segment 336 score:	0.2888112573352867
Segment 337 score:	0.45453604184260327
Segment 338 score:	0.27908876662225585
Segment 339 score:	0.5363373532542625
Segment 340 score:	0.3065222695394499
Segment 341 score:	0.48243020572186135
Segment 342 score:	0.2764443199400549
Segment 343 score:	0.25085777544895055
Segment 344 score:	0.5071648285913122
Segment 345 score:	0.49153973250358807
Segment 346 score:	0.5029655216878556
Segment 347 score:	0.4121767915019977
Segment 348 score:	0.31052701219768214
Segment 349 score:	0.10157804091813953
Segment 350 score:	0.34771714519748936
Segment 351 score:	0.3645775868784849
Segment 352 score:	0.4080528567015907
Segment 353 score:	0.46019854668328397
Segment 354 score:	0.2790578282748035
Segment 355 score:	0.30349449614745877
Segment 356 score:	0.26308216328965167
Segment 357 score:	0.34072754457683324
Segment 358 score:	0.1797752808988764
Segment 359 score:	0.4200269832548186
Segment 360 score:	0.4272437193152396
Segment 361 score:	0.1950387087780113
Segment 362 score:	0.34426642307915356
Segment 363 score:	0.33341687652227014
Segment 364 score:	0.31235915955286964
Segment 365 score:	0.41522954840933574
Segment 366 score:	0.3123045677511912
Segment 367 score:	0.2889901138226481
Segment 368 score:	0.1331250637838996
Segment 369 score:	0.309168523091001
Segment 370 score:	0.38462017973049606
Segment 371 score:	0.4049172337193179
Segment 372 score:	1.0
Segment 373 score:	0.18317590079078477
Segment 374 score:	0.521249523013039
Segment 375 score:	0.5076160918828492
Segment 376 score:	0.22928464977549445
Segment 377 score:	0.30845183194177084
Segment 378 score:	0.2958711441315712
Segment 379 score:	0.5087723435971716
Segment 380 score:	0.24516594562592647
Segment 381 score:	0.3069749825200075
Segment 382 score:	0.13940101167354002
Segment 383 score:	0.3796365169950261
Segment 384 score:	0.3854119347884193
Segment 385 score:	0.31336749260187796
Segment 386 score:	0.1835095574028403
Segment 387 score:	0.3390402642722425
Segment 388 score:	0.4377804334049218
Segment 389 score:	0.5033678042321144
Segment 390 score:	0.2835445739573841
Segment 391 score:	0.3449413382759488
Segment 392 score:	0.2053557348703966
Segment 393 score:	0.3797605048897964
Segment 394 score:	0.4482350810699204
Segment 395 score:	0.38823994867529205
Segment 396 score:	0.29247925492092675
Segment 397 score:	0.24733704182385785
Segment 398 score:	0.19125617748021737
Segment 399 score:	0.4333100379600548
Segment 400 score:	0.2733550363578552
Segment 401 score:	0.20365350618738953
Segment 402 score:	0.2927243751223377
Segment 403 score:	0.2975171263608982
Segment 404 score:	0.25310125679941226
Segment 405 score:	0.3893325044698877
Segment 406 score:	0.4827473103030734
Segment 407 score:	0.4156136267616965
Segment 408 score:	0.3866813183413256
Segment 409 score:	0.25396825396825395
Segment 410 score:	0.40253948284432256
Segment 411 score:	0.2758116888291673
Segment 412 score:	0.5716945656063143
Segment 413 score:	0.3527678911033846
Segment 414 score:	0.29682199170249696
Segment 415 score:	0.4672908797514519
Segment 416 score:	0.36356739942385846
Segment 417 score:	0.4145588039828754
Segment 418 score:	0.34630264408929823
Segment 419 score:	0.4442314980752175
Segment 420 score:	0.5099509430324125
Segment 421 score:	1.0
Segment 422 score:	0.20259045082132474
Segment 423 score:	0.5287612412575812
Segment 424 score:	0.3330765059619858
Segment 425 score:	0.38945195205306
Segment 426 score:	0.43314289540960266
Segment 427 score:	0.23911350564810893
Segment 428 score:	0.3206141599658118
Segment 429 score:	0.20555926876345207
Segment 430 score:	0.28034211946500437
Segment 431 score:	0.24518281491117247
Segment 432 score:	0.19981768509755551
Segment 433 score:	0.4017089973959747
Segment 434 score:	0.2677364224738883
Segment 435 score:	0.3150618137779334
Segment 436 score:	0.2980504314151375
Segment 437 score:	0.3790946556107531
Segment 438 score:	0.26468452143676274
Segment 439 score:	0.3093427163670665
Segment 440 score:	0.265170698576998
Segment 441 score:	0.3019120459252552
Segment 442 score:	0.4628809503172796
Segment 443 score:	0.299350959757444
Segment 444 score:	0.2969966810501506
Segment 445 score:	0.5206965804161193
Segment 446 score:	0.4835471668923862
Segment 447 score:	0.3914088425828821
Segment 448 score:	0.2823987561083561
Segment 449 score:	0.33036874984082143
Segment 450 score:	0.3966262874277605
Segment 451 score:	0.524430900736136
Segment 452 score:	0.4702463285855459
Segment 453 score:	0.11753358857981014
Segment 454 score:	0.13786747666250562
Segment 455 score:	0.40291812621989437
Segment 456 score:	0.28936651128196805
Segment 457 score:	0.312358220819392
Segment 458 score:	0.2789837954825714
Segment 459 score:	0.2768419236897019
Segment 460 score:	0.3685698241752137
Segment 461 score:	0.32143700432043565
Segment 462 score:	0.5028656115040683
Segment 463 score:	0.3208060650141163
Segment 464 score:	0.5288790921790351
Segment 465 score:	0.4080501697746584
Segment 466 score:	0.4072376124696947
Segment 467 score:	0.48469780448611605
Segment 468 score:	0.284398284527267
Segment 469 score:	0.1226993865030675
Segment 470 score:	1.0
Segment 471 score:	0.3689166907858266
Segment 472 score:	0.36110133582484205
Segment 473 score:	0.1952090594361926
Segment 474 score:	0.4913924448741985
Segment 475 score:	0.3511129688838177
Segment 476 score:	0.4298119795744034
Segment 477 score:	0.39572189675176456
Segment 478 score:	0.22916073218958863
Segment 479 score:	0.3219487792156291
Segment 480 score:	0.4897139172586985
Segment 481 score:	0.5320001063459526
Segment 482 score:	1.0
Segment 483 score:	0.44821934947303116
Segment 484 score:	0.2114302238969056
Segment 485 score:	0.3286048980779895
Segment 486 score:	0.1755620090639026
Segment 487 score:	0.4481978507366033
Segment 488 score:	0.3145150038007082
Segment 489 score:	0.4269033864155339
Segment 490 score:	1.0
Segment 491 score:	0.4335225865923119
Segment 492 score:	0.558747372036737
Segment 493 score:	0.3828900373256939
Segment 494 score:	0.2810945576232484
Segment 495 score:	0.34385656456083713
Segment 496 score:	0.2995630787049296
Segment 497 score:	0.4451726350916494
Segment 498 score:	0.23441203997749846
Segment 499 score:	0.32640252998935265
Segment 500 score:	0.3075077079879471
Segment 501 score:	0.3104567264703096
Segment 502 score:	0.23061751132627478
Segment 503 score:	0.45106382938677675
Segment 504 score:	0.3916660985615362
Segment 505 score:	0.5427195491373664
Segment 506 score:	0.23333125684689976
Segment 507 score:	0.20617542005917933
Segment 508 score:	0.42290329931722764
Segment 509 score:	0.4539409315114973
Segment 510 score:	0.2602472660947201
Segment 511 score:	0.2653045097784233
Segment 512 score:	0.2911953057958354
Segment 513 score:	0.33311770803149504
Segment 514 score:	0.2590903607630266
Segment 515 score:	0.39914631793039207
Segment 516 score:	0.1957377725255186
Segment 517 score:	0.25726838138259805
Segment 518 score:	0.2947593981445906
Segment 519 score:	0.4297244045130458
Segment 520 score:	0.4593989737386466
Segment 521 score:	0.1776940495041446
Segment 522 score:	0.23531130568921169
Segment 523 score:	0.17121292102607455
Segment 524 score:	0.23538866668066355
Segment 525 score:	0.3823706978926389
Segment 526 score:	0.412888881305933
Segment 527 score:	0.22275626337369597
Segment 528 score:	0.3246424331426983
Segment 529 score:	0.26215797493347726
Segment 530 score:	0.3285029156319057
Segment 531 score:	0.4463598482504158
Segment 532 score:	0.22295575459306688
Segment 533 score:	0.32378638273184407
Segment 534 score:	0.37301844143519847
Segment 535 score:	0.3167475319266078
Segment 536 score:	0.3319865586952183
Segment 537 score:	0.35456915233754893
Segment 538 score:	0.269862113959138
Segment 539 score:	0.3024393282539794
Segment 540 score:	0.5168100199071025
Segment 541 score:	0.3621283411923281
Segment 542 score:	0.418145877603031
Segment 543 score:	0.22713479372934406
Segment 544 score:	0.5529555397358021
Segment 545 score:	0.3007826832315887
Segment 546 score:	0.34911911209188895
Segment 547 score:	0.25186014712660937
Segment 548 score:	0.3528184118312806
Segment 549 score:	0.44684195580017355
Segment 550 score:	0.2915916419237654
Segment 551 score:	0.43449266989344915
Segment 552 score:	0.41676343760797324
Segment 553 score:	0.1452567185315617
Segment 554 score:	0.39361227302429913
Segment 555 score:	0.36486466808471385
Segment 556 score:	0.37301752348815015
Segment 557 score:	0.33612029492857937
Segment 558 score:	0.28422797404744315
Segment 559 score:	0.3209915195791683
Segment 560 score:	0.2501445583849505
Segment 561 score:	0.331527068133917
Segment 562 score:	0.5061609513486852
Segment 563 score:	0.27184466019417475
Segment 564 score:	0.367913044201577
Segment 565 score:	1.0
Segment 566 score:	0.5066702498837223
Segment 567 score:	0.23958390563132534
Segment 568 score:	0.23471882640586794
Segment 569 score:	0.2656137314679959
Segment 570 score:	0.5819796745071734
Segment 571 score:	0.38556464833024556
Segment 572 score:	0.20605749980183974
Segment 573 score:	0.22379704849830714
Segment 574 score:	0.424595255130956
Segment 575 score:	0.3940986382433272
Segment 576 score:	1.0
Segment 577 score:	0.1761612643840103
Segment 578 score:	0.469533220246488
Segment 579 score:	0.3122657090714383
Segment 580 score:	0.3670067307153482
Segment 581 score:	0.24269988702280013
Segment 582 score:	0.4218107504011083
Segment 583 score:	1.0
Segment 584 score:	0.2164242450623109
Segment 585 score:	0.3819823964669901
Segment 586 score:	0.3137265105929399
Segment 587 score:	0.2302158273381295
Segment 588 score:	0.27148515989566874
Segment 589 score:	0.31770188261187715
Segment 590 score:	0.2545272369950101
Segment 591 score:	0.30081764449794535
Segment 592 score:	0.4392733197153157
Segment 593 score:	0.1842242483361531
Segment 594 score:	0.3567511583973049
Segment 595 score:	0.18669956838303306
Segment 596 score:	0.2753289482871906
Segment 597 score:	0.2942558992403617
Segment 598 score:	0.3931236251790066
Segment 599 score:	0.24516594562592647
Segment 600 score:	0.25171901490078996
Segment 601 score:	0.11414124082369856
Segment 602 score:	0.17785572522107868
Segment 603 score:	0.3663741059209641
Segment 604 score:	0.17875789286076213
Segment 605 score:	0.2398712366812124
Segment 606 score:	0.3289547170311567
Segment 607 score:	0.3150237142767752
Segment 608 score:	1.0
Segment 609 score:	0.40387119641428765
Segment 610 score:	0.3622538454740426
Segment 611 score:	0.4340215309773179
Segment 612 score:	0.4059869660143995
Segment 613 score:	0.21797764937634506
Segment 614 score:	0.2437283760039181
Segment 615 score:	0.4273365167580604
Segment 616 score:	0.35695387794223965
Segment 617 score:	0.3785130809195053
Segment 618 score:	0.37945078437928015
Segment 619 score:	0.4629134800266432
Segment 620 score:	0.24067722276671563
Segment 621 score:	0.22672064777327938
Segment 622 score:	1.0
Segment 623 score:	0.289901623660926
Segment 624 score:	0.34081357366600934
Segment 625 score:	0.501481868563708
Segment 626 score:	0.3102841015031806
Segment 627 score:	0.44511249762086713
Segment 628 score:	0.4560634673969597
Segment 629 score:	0.3199977965937325
Segment 630 score:	0.29272306324507247
Segment 631 score:	0.30934365715880247
Segment 632 score:	0.311493654262702
Segment 633 score:	0.2698885204266579
Segment 634 score:	0.29889672056101513
Segment 635 score:	0.2868075302813008
Segment 636 score:	0.15487509191912763
Segment 637 score:	0.15975207007799455
Segment 638 score:	0.29727926660301557
Segment 639 score:	0.3867335437882382
Segment 640 score:	0.4326575896842632
Segment 641 score:	0.3292964214283258
Segment 642 score:	0.3055094646303748
Segment 643 score:	0.15310388111514048
Segment 644 score:	0.427479717324806
Segment 645 score:	0.2682622559222622
Segment 646 score:	0.37587120946019054
Segment 647 score:	1.0
Segment 648 score:	0.3428847591438127
Segment 649 score:	0.4050549446987968
Segment 650 score:	0.39098118476673527
Segment 651 score:	0.29690313110982613
Segment 652 score:	0.4270618196866208
Segment 653 score:	0.1375358166189112
Segment 654 score:	0.22016503527989847
Segment 655 score:	0.2955079593167784
Segment 656 score:	0.31866336412699947
Segment 657 score:	0.43498326960324046
Segment 658 score:	0.32416481363726857
Segment 659 score:	0.3081739754982746
Segment 660 score:	0.4218993663136448
Segment 661 score:	0.3065078923574363
Segment 662 score:	0.2773327003978151
Segment 663 score:	0.3251405106858672
Segment 664 score:	0.2513289612448729
Segment 665 score:	0.3171429059602089
Segment 666 score:	0.37082577888416907
Segment 667 score:	0.18603906659034175
Segment 668 score:	0.19047619047619047
Segment 669 score:	0.42054875792286645
Segment 670 score:	0.21548550227784538
Segment 671 score:	0.29077953978266896
Segment 672 score:	0.2763649359190814
Segment 673 score:	0.35649780724741864
Segment 674 score:	0.3574771968277687
Segment 675 score:	0.2763919980392622
Segment 676 score:	0.3096057629338572
Segment 677 score:	0.3965660600821521
Segment 678 score:	1.0
Segment 679 score:	0.24120603015075376
Segment 680 score:	0.4628170204855907
Segment 681 score:	0.4426964831896912
Segment 682 score:	0.3781572742486562
Segment 683 score:	0.4694913642842825
Segment 684 score:	0.2950660451522294
Segment 685 score:	0.3080932780075609
Segment 686 score:	0.42524866665607836
Segment 687 score:	1.0
Segment 688 score:	0.21314935318023806
Segment 689 score:	0.25545582222785634
Segment 690 score:	0.34286135859264033
Segment 691 score:	0.4172586688563633
Segment 692 score:	0.43812784293881946
Segment 693 score:	0.4351155637849933
Segment 694 score:	0.3739238484261499
Segment 695 score:	0.44629673580816775
Segment 696 score:	0.3832107711644634
Segment 697 score:	0.3453347346395264
Segment 698 score:	0.2072319574934167
Segment 699 score:	0.2601630503629594
Segment 700 score:	0.3646043435343744
Segment 701 score:	0.23727005839635187
Segment 702 score:	0.3096131011573395
Segment 703 score:	1.0
Segment 704 score:	0.3974132403949287
Segment 705 score:	0.4833494492319126
Segment 706 score:	0.30053763339742584
Segment 707 score:	0.3206217968188195
Segment 708 score:	0.44098108769468025
Segment 709 score:	0.35290699944450105
Segment 710 score:	0.5461848189794866
Segment 711 score:	0.3588450974212544
Segment 712 score:	0.21440222103530057
Segment 713 score:	0.34093919420101615
Segment 714 score:	0.5193618500090645
Segment 715 score:	0.42767453337010247
Segment 716 score:	0.47348776169357787
Segment 717 score:	0.29031903904928447
Segment 718 score:	0.3692709538154723
Segment 719 score:	0.42683759690558165
Segment 720 score:	0.37187215142494723
Segment 721 score:	0.35708699189358867
Segment 722 score:	0.36711718503911606
Segment 723 score:	0.4412615345374993
Segment 724 score:	0.43851313188806224
Segment 725 score:	0.2740838817294723
Segment 726 score:	0.423809214657717
Segment 727 score:	0.35283004866375056
Segment 728 score:	0.23322856854941373
Segment 729 score:	0.24967239694824303
Segment 730 score:	0.22026385814979885
Segment 731 score:	0.47321332804758354
Segment 732 score:	0.21171425091171678
Segment 733 score:	0.29770554797104337
Segment 734 score:	0.3855629558924601
Segment 735 score:	0.2140468227424749
Segment 736 score:	0.4620649250538365
Segment 737 score:	0.42159730420244157
Segment 738 score:	0.3045252429655447
Segment 739 score:	0.49440762446037556
Segment 740 score:	0.3009457065007117
Segment 741 score:	0.36624014898937063
Segment 742 score:	0.24019736855146653
Segment 743 score:	0.32643436869893466
Segment 744 score:	0.2135843612401362
Segment 745 score:	0.3580120803997525
Segment 746 score:	0.3283210552112532
Segment 747 score:	0.1915032026997786
Segment 748 score:	0.45033972330410177
Segment 749 score:	0.31753348378031315
Segment 750 score:	0.3763269208379297
Segment 751 score:	0.3376908502850892
Segment 752 score:	0.3309041430827469
Segment 753 score:	0.40325881014950093
Segment 754 score:	0.1910411788002826
Segment 755 score:	0.32718236809147183
Segment 756 score:	0.3728193352396353
Segment 757 score:	0.3135350920789002
Segment 758 score:	0.513468701995181
Segment 759 score:	0.3299774003805793
Segment 760 score:	0.3529511388206856
Segment 761 score:	0.40889179667177417
Segment 762 score:	0.40761532902480874
Segment 763 score:	0.40996746479570095
Segment 764 score:	0.38428049074677517
Segment 765 score:	0.4924292657671069
Segment 766 score:	0.3400420788364002
Segment 767 score:	0.18849891009698208
Segment 768 score:	0.4674237981970862
Segment 769 score:	0.29324447756725214
Segment 770 score:	0.3722370323487272
Segment 771 score:	0.4725232913436077
Segment 772 score:	0.2461790280458683
Segment 773 score:	0.2353892169387944
Segment 774 score:	0.17869410124438537
Segment 775 score:	0.33174724028407143
Segment 776 score:	0.25740484321140966
Segment 777 score:	0.4645695216158345
Segment 778 score:	0.547405344773515
Segment 779 score:	0.2974089975517032
Segment 780 score:	0.4417234403821503
Segment 781 score:	0.1990049751243781
Segment 782 score:	0.29425282776379497
Segment 783 score:	1.0
Segment 784 score:	0.3315407523649179
Segment 785 score:	0.3725867646333295
Segment 786 score:	0.5283981486420264
Segment 787 score:	0.4594895874400747
Segment 788 score:	0.2462244919425007
Segment 789 score:	0.26248508088452793
Segment 790 score:	0.5123483503796193
Segment 791 score:	0.32694706503923715
Segment 792 score:	0.2001555464627464
Segment 793 score:	0.5332135172022013
Segment 794 score:	0.35206685204177385
Segment 795 score:	0.2625482625482626
Segment 796 score:	0.2949102817400483
Segment 797 score:	0.40464233892365176
Segment 798 score:	0.298984534464859
Segment 799 score:	0.1295151541448983
Segment 800 score:	0.37761146444015675
Segment 801 score:	0.20969855832241155
Segment 802 score:	0.2516457380058641
Segment 803 score:	0.30309744364751945
Segment 804 score:	0.3486046709125056
Segment 805 score:	0.3653144737842323
Segment 806 score:	0.45199520147219585
Segment 807 score:	0.42044885348419275
Segment 808 score:	0.2929374954209857
Segment 809 score:	0.22869606444184312
Segment 810 score:	0.29235825354374556
Segment 811 score:	0.34540831049067233
Segment 812 score:	0.34500222763568733
Segment 813 score:	0.28882989904699424
Segment 814 score:	0.3291072086050852
Segment 815 score:	0.2763865269297
Segment 816 score:	0.49572829779913125
Segment 817 score:	0.33537625915694597
Segment 818 score:	0.36147974423311124
Segment 819 score:	0.4053504842058075
Segment 820 score:	0.194138740524122
Segment 821 score:	0.4897139172586985
Segment 822 score:	0.356824958097859
Segment 823 score:	0.14681997677000994
Segment 824 score:	0.12699457361408067
Segment 825 score:	0.3043451330494217
Segment 826 score:	0.24368785992903777
Segment 827 score:	0.13352472106023996
Segment 828 score:	0.22911694510739855
Segment 829 score:	0.3956994844541707
Segment 830 score:	0.14378797505884866
Segment 831 score:	0.4004416328330872
Segment 832 score:	0.298347009515492
Segment 833 score:	0.19209488930498606
Segment 834 score:	0.2878121188082326
Segment 835 score:	0.31685567119064617
Segment 836 score:	0.35456915233754893
Segment 837 score:	0.2606202718776674
Segment 838 score:	0.4337389988176927
Segment 839 score:	0.2448727009490158
Segment 840 score:	0.3121554556770254
Segment 841 score:	0.41947808561930994
Segment 842 score:	0.3145276072445961
Segment 843 score:	0.28120115255226524
Segment 844 score:	0.3051941441777899
Segment 845 score:	0.2565073639579197
Segment 846 score:	0.37516831799789935
Segment 847 score:	0.26882838115616997
Segment 848 score:	0.16032064128256512
Segment 849 score:	0.3809433533445702
Segment 850 score:	0.24580075154360218
Segment 851 score:	0.2370393410756167
Segment 852 score:	0.42249687558111804
Segment 853 score:	0.30145841727781714
Segment 854 score:	0.20072418000806075
Segment 855 score:	0.4417234403821503
Segment 856 score:	0.4165772855084065
Segment 857 score:	1.0
Segment 858 score:	0.40200387504590146
Segment 859 score:	0.29728654918385344
Segment 860 score:	0.3791224076756947
Segment 861 score:	0.347875743222492
Segment 862 score:	0.1842321457050489
Segment 863 score:	0.30093512990951665
Segment 864 score:	0.46156430314780494
Segment 865 score:	0.5795181072116372
Segment 866 score:	0.4007274346058609
Segment 867 score:	0.9917808219178081
Segment 868 score:	0.3250800306257851
Segment 869 score:	0.40173408100942815
Segment 870 score:	0.33631216315037177
Segment 871 score:	0.46221706839461557
Segment 872 score:	0.30421536035928387
Segment 873 score:	0.23300959123040266
Segment 874 score:	0.23999573761714982
Segment 875 score:	0.43033450584874033
Segment 876 score:	0.45141128253849305
Segment 877 score:	0.41206819428818336
Segment 878 score:	0.5177780700741892
Segment 879 score:	0.48118713912966576
Segment 880 score:	0.19094655380480813
Segment 881 score:	0.26008455163553984
Segment 882 score:	0.2593481491509393
Segment 883 score:	0.2096444059502355
Segment 884 score:	0.17995926801771334
Segment 885 score:	0.5080089788583078
Segment 886 score:	0.17640724155957363
Segment 887 score:	0.32310543361404576
Segment 888 score:	0.33061601597744633
Segment 889 score:	0.4074907069384767
Segment 890 score:	0.2995596042122412
Segment 891 score:	0.2648904156634496
Segment 892 score:	0.13684449397167303
Segment 893 score:	0.4489540720964319
Segment 894 score:	0.33074330792491247
Segment 895 score:	0.393114391558597
Segment 896 score:	0.4324486121531791
Segment 897 score:	0.2142661989985211
Segment 898 score:	0.30963856638480686
Segment 899 score:	0.2615056869349597
Segment 900 score:	0.29125782853299254
Segment 901 score:	0.4096113909730018
Segment 902 score:	0.35260505616411575
Segment 903 score:	0.3309956704302122
Segment 904 score:	0.316802736458374
Segment 905 score:	0.35493641970478396
Segment 906 score:	0.43606699665610854
Segment 907 score:	0.30512788155464066
Segment 908 score:	0.24967239694824303
Segment 909 score:	0.34126391649262033
Segment 910 score:	0.45865095985251647
Segment 911 score:	0.47540146817823586
Segment 912 score:	0.4628170204855907
Segment 913 score:	0.2318955833927573
Segment 914 score:	0.27336559395987264
Segment 915 score:	0.10073876879205458
Segment 916 score:	0.28211597717307874
Segment 917 score:	0.31454162870456664
Segment 918 score:	0.15994476196065685
Segment 919 score:	0.13718717259478486
Segment 920 score:	0.45922669882072303
Segment 921 score:	0.13522331435151191
Segment 922 score:	0.23789358822328613
Segment 923 score:	0.3759283113582533
Segment 924 score:	0.256979756384532
Segment 925 score:	1.0
Segment 926 score:	0.4327505185198177
Segment 927 score:	0.30648069291909025
Segment 928 score:	0.2424021751827646
Segment 929 score:	0.3514122314383279
Segment 930 score:	0.33554109611333743
Segment 931 score:	0.5311633445412995
Segment 932 score:	0.36007064431763813
Segment 933 score:	0.22622779810534485
Segment 934 score:	0.26566986293137085
Segment 935 score:	0.3748607136371317
Segment 936 score:	0.43866436920496044
Segment 937 score:	0.4511075624237477
Segment 938 score:	0.3597838524704774
Segment 939 score:	0.48709093891443445
Segment 940 score:	0.4262602663212796
Segment 941 score:	0.34469462840102383
Segment 942 score:	0.2736209330330649
Segment 943 score:	0.31996124961111355
Segment 944 score:	0.57821720960177
Segment 945 score:	1.0
Segment 946 score:	0.20435065754965795
Segment 947 score:	0.09676005869595186
Segment 948 score:	0.23268460365915494
Segment 949 score:	0.27732765323550784
Segment 950 score:	0.2727543066201785
Segment 951 score:	0.2596592838689756
Segment 952 score:	0.07810320781032078
Segment 953 score:	0.32352275210142917
Segment 954 score:	0.2514282559293974
Segment 955 score:	0.43111077848476037
Segment 956 score:	0.5630507052932757
Segment 957 score:	0.28517591762526895
Segment 958 score:	0.34081357366600934
Segment 959 score:	0.36602943526191584
Segment 960 score:	0.3267311252676973
Segment 961 score:	0.3833451726575615
Segment 962 score:	0.4307105847321662
Segment 963 score:	0.34297570300174157
Segment 964 score:	0.15596783171042988
Segment 965 score:	0.2186099309278927
Segment 966 score:	0.3976422400665239
Segment 967 score:	0.343943498494264
Segment 968 score:	0.417561419643327
Segment 969 score:	0.4213090727580605
Segment 970 score:	0.4140706432627137
Segment 971 score:	0.4109625261773488
Segment 972 score:	0.3247411538741364
Segment 973 score:	0.20960698689956334
Segment 974 score:	0.2499005021379646
Segment 975 score:	0.35052196333873636
Segment 976 score:	0.48191553738715287
Segment 977 score:	0.20210107874476124
Segment 978 score:	0.15835976322455617
Segment 979 score:	0.27153328210667677
Segment 980 score:	0.3976422400665239
Segment 981 score:	0.23681165596217504
Segment 982 score:	0.5216707381006828
Segment 983 score:	0.38357700234174624
Segment 984 score:	0.296226334948628
Segment 985 score:	0.18691678279017124
Segment 986 score:	0.5224355197513308
Segment 987 score:	0.31009822341758847
Segment 988 score:	0.5313239822750632
Segment 989 score:	0.27936507936507937
Segment 990 score:	0.35570136922444373
Segment 991 score:	0.3894816144737422
Segment 992 score:	0.29524074872740796
Segment 993 score:	0.532297364247178
Segment 994 score:	0.1763737354978212
Segment 995 score:	0.31665294877678263
Segment 996 score:	0.21501892663885935
Segment 997 score:	0.24211038647821767
Segment 998 score:	0.24663686389009679
Segment 999 score:	0.20731329558201986
Segment 1000 score:	0.35219741263034976
Segment 1001 score:	0.2342568016102935
Segment 1002 score:	0.3512692889390891
Segment 1003 score:	0.5306707973877551
Segment 1004 score:	0.45492067623030596
Segment 1005 score:	0.4027111839172433
Segment 1006 score:	0.23333333333333336
Segment 1007 score:	0.27263305247822706
Segment 1008 score:	0.4427653063684271
Segment 1009 score:	0.26474687074913816
Segment 1010 score:	0.4440397475477792
Segment 1011 score:	0.5092521426078933
Segment 1012 score:	0.4322381335737468
Segment 1013 score:	0.4479744165837497
Segment 1014 score:	0.40950107701952054
Segment 1015 score:	0.48010063967621047
Segment 1016 score:	0.3620144141388401
Segment 1017 score:	0.26863671677881223
Segment 1018 score:	0.3690341405878317
Segment 1019 score:	0.4057313659185433
Segment 1020 score:	0.4870639465920891
Segment 1021 score:	0.467544697148387
Segment 1022 score:	0.38252336985391805
Segment 1023 score:	0.326682179587888
Segment 1024 score:	0.19091175057782633
Segment 1025 score:	0.2712521901097163
Segment 1026 score:	0.3336098085852755
Segment 1027 score:	0.3532589561113981
Segment 1028 score:	0.3627168867184071
Segment 1029 score:	0.18748122967063013
Segment 1030 score:	0.26671178203974033
Segment 1031 score:	0.1834506026312553
Segment 1032 score:	0.2982245525801775
Segment 1033 score:	0.2064516129032258
Segment 1034 score:	0.32018567629113415
Segment 1035 score:	0.39174483248963476
Segment 1036 score:	0.5223707933343227
Segment 1037 score:	0.2886442344942189
Segment 1038 score:	0.3991129639366859
Segment 1039 score:	0.2681152207864734
Segment 1040 score:	0.2986679527011448
Segment 1041 score:	0.14698162729658792
Segment 1042 score:	0.49127232314447133
Segment 1043 score:	0.39409261170082127
Segment 1044 score:	0.10089372217633501
Segment 1045 score:	0.16923675326766302
Segment 1046 score:	0.3469489574576729
Segment 1047 score:	0.2972146447762041
Segment 1048 score:	0.26682280182756934
Segment 1049 score:	0.4346359487894814
Segment 1050 score:	0.5221005796597201
Segment 1051 score:	0.298134058384793
Segment 1052 score:	0.5061663951725844
Segment 1053 score:	0.2783935618448665
Segment 1054 score:	0.27476245573848523
Segment 1055 score:	0.3895859270817599
Segment 1056 score:	0.24536835679927857
Segment 1057 score:	0.22705094543995485
Segment 1058 score:	0.46536089180035456
Segment 1059 score:	0.29417856121640573
Segment 1060 score:	0.43254252804201465
Segment 1061 score:	0.20437956204379565
Segment 1062 score:	0.09261617690358331
Segment 1063 score:	0.2962292477657833
Segment 1064 score:	0.3497183351395378
Segment 1065 score:	0.5115121713652743
Segment 1066 score:	0.23452445313914755
Segment 1067 score:	0.2840092230493285
Segment 1068 score:	0.338480434821257
Segment 1069 score:	0.13533666841859665
Segment 1070 score:	0.43059101474985034
Segment 1071 score:	0.24122266751129592
Segment 1072 score:	0.15186443587756204
Segment 1073 score:	0.5502517765188016
Segment 1074 score:	0.367469921819505
Segment 1075 score:	0.3749170706747892
Segment 1076 score:	0.27174014325973816
Segment 1077 score:	0.3078143672378357
Segment 1078 score:	0.5120477954654395
Segment 1079 score:	0.379994715146505
Segment 1080 score:	0.25685483356940786
Segment 1081 score:	0.3533158507971872
Segment 1082 score:	0.3752311727618439
Segment 1083 score:	0.3650473021723568
Segment 1084 score:	0.10759063789773182
Segment 1085 score:	0.5012425127987786
Segment 1086 score:	0.35170100999871157
Segment 1087 score:	0.27584948343621163
Segment 1088 score:	0.3869347899866268
Segment 1089 score:	0.5485224106054701
Segment 1090 score:	0.3082241036845219
Segment 1091 score:	0.23970682327872436
Segment 1092 score:	0.38390015454977033
Segment 1093 score:	0.2902166987662228
Segment 1094 score:	0.31197589070226905
Segment 1095 score:	0.31077929330931126
Segment 1096 score:	0.24146498567177832
Segment 1097 score:	0.10085659618087008
Segment 1098 score:	0.2907554464483721
Segment 1099 score:	0.2251568134438241
Segment 1100 score:	0.32504221612628775
Segment 1101 score:	0.5168207014412645
Segment 1102 score:	0.38247806859019773
Segment 1103 score:	0.4296622381937761
Segment 1104 score:	0.2325769605025074
Segment 1105 score:	0.15639025589862354
Segment 1106 score:	0.21883776901332525
Segment 1107 score:	0.45957871076077694
Segment 1108 score:	0.2748584355956004
Segment 1109 score:	0.39111202129725225
Segment 1110 score:	0.48118713912966576
Segment 1111 score:	0.26674398250807796
Segment 1112 score:	0.4823857073778348
Segment 1113 score:	0.4454908771112576
Segment 1114 score:	0.41005573575761717
Segment 1115 score:	0.3645775868784849
Segment 1116 score:	0.6174466017814316
Segment 1117 score:	0.31999023480506494
Segment 1118 score:	0.5154836325406256
Segment 1119 score:	1.0
Segment 1120 score:	0.2540884991334855
Segment 1121 score:	0.16224139773540458
Segment 1122 score:	0.2659633134800154
Segment 1123 score:	0.32514710536268215
Segment 1124 score:	0.4433299880440921
Segment 1125 score:	0.260153055982183
Segment 1126 score:	0.27437726917504746
Segment 1127 score:	0.17970631979019025
Segment 1128 score:	0.32268145301774825
Segment 1129 score:	0.318632957260282
Segment 1130 score:	0.3314710307214162
Segment 1131 score:	0.37846974038450154
Segment 1132 score:	0.2934798761407227
Segment 1133 score:	0.2841420307507859
Segment 1134 score:	0.31372063150927093
Segment 1135 score:	0.27431112033129335
Segment 1136 score:	0.2679069767441861
Segment 1137 score:	0.2725087354334283
Segment 1138 score:	0.2942739391996725
Segment 1139 score:	0.4139230914463733
Segment 1140 score:	0.3035218954279551
Segment 1141 score:	0.24106292366284826
Segment 1142 score:	0.23333333333333336
Segment 1143 score:	0.3398014554281865
Segment 1144 score:	0.3051809912492455
Segment 1145 score:	0.142713255788744
Segment 1146 score:	0.3548667537309795
Segment 1147 score:	0.13213545284158382
Segment 1148 score:	0.4728215006450488
Segment 1149 score:	0.42194065942986064
Segment 1150 score:	0.5322325500699663
Segment 1151 score:	0.31317088746754906
Segment 1152 score:	0.1440046885602129
Segment 1153 score:	0.31478431002115304
Segment 1154 score:	0.34753166269124625
Segment 1155 score:	0.16871334640965138
Segment 1156 score:	0.27513955846115445
Segment 1157 score:	0.38058233234299116
Segment 1158 score:	0.3578290275465911
Segment 1159 score:	0.2596153744188133
Segment 1160 score:	0.34068108051665297
Segment 1161 score:	0.3177843905346032
Segment 1162 score:	0.340015666496239
Segment 1163 score:	0.4601870957999739
Segment 1164 score:	0.5119428429749736
Segment 1165 score:	0.4366365091299463
Segment 1166 score:	0.33979071721677356
Segment 1167 score:	0.263607631801328
Segment 1168 score:	0.2622098880025387
Segment 1169 score:	0.31155051009051554
Segment 1170 score:	0.2731193194697907
Segment 1171 score:	0.2787331961517576
Segment 1172 score:	0.39579776714006915
Segment 1173 score:	0.2695299107977105
Segment 1174 score:	0.6600422825604538
Segment 1175 score:	0.44799803663116317
Segment 1176 score:	0.34241820865421596
Segment 1177 score:	0.16930273788234873
Segment 1178 score:	0.24081956623931533
Segment 1179 score:	0.2350444442153528
Segment 1180 score:	0.33860127940823076
Segment 1181 score:	0.2197541452141095
Segment 1182 score:	0.29022521256896033
Segment 1183 score:	0.28915933254512843
Segment 1184 score:	0.47539729836555417
Segment 1185 score:	0.48624142806728204
Segment 1186 score:	0.431962552453218
Segment 1187 score:	0.37459794852962736
Segment 1188 score:	0.42300546942576
Segment 1189 score:	0.26975165055877653
Segment 1190 score:	0.25452270186350123
Segment 1191 score:	0.38390015454977033
Segment 1192 score:	0.46007885524438374
Segment 1193 score:	0.2185953747343154
Segment 1194 score:	0.2851162085974303
Segment 1195 score:	0.39326508063365645
Segment 1196 score:	0.3205560690708652
Segment 1197 score:	0.47857282201076634
Segment 1198 score:	0.3260418922636434
Segment 1199 score:	0.3918284551039235
Segment 1200 score:	0.4612121898399475
Segment 1201 score:	0.19851101513118755
Segment 1202 score:	0.4066727254222836
Segment 1203 score:	0.30604379921034053
Segment 1204 score:	0.1925782841178753
Segment 1205 score:	0.47087050119786744
Segment 1206 score:	0.28219634662723386
Segment 1207 score:	0.31423423503492925
Segment 1208 score:	0.36169375514401636
Segment 1209 score:	0.44133736577857996
Segment 1210 score:	0.21273891547252266
Segment 1211 score:	0.2558343503431765
Segment 1212 score:	0.13064783255981027
Segment 1213 score:	0.38931799182693394
Segment 1214 score:	0.1895568852275769
Segment 1215 score:	0.5105087725160901
Segment 1216 score:	0.2891837953864889
Segment 1217 score:	0.48528035720845314
Segment 1218 score:	0.28680527447611576
Segment 1219 score:	0.2420888827742201
Segment 1220 score:	0.440634367714651
Segment 1221 score:	0.4352060874315134
Segment 1222 score:	0.3068232823062554
Segment 1223 score:	0.20908091468389398
Segment 1224 score:	0.36810317425502925
Segment 1225 score:	0.4450761827295699
Segment 1226 score:	0.2754894766748363
Segment 1227 score:	0.3449525707940985
Segment 1228 score:	0.08521970705725698
Segment 1229 score:	0.42069468193527876
Segment 1230 score:	0.3365213510714363
Segment 1231 score:	0.41448489527353716
Segment 1232 score:	0.21842694452958378
Segment 1233 score:	0.17679558011049723
Segment 1234 score:	0.32112246186374827
Segment 1235 score:	0.37120055658383944
Segment 1236 score:	0.25731755270969553
Segment 1237 score:	0.28804079707018915
Segment 1238 score:	0.2931523248256499
Segment 1239 score:	0.2932706544419137
Segment 1240 score:	0.2561225131357317
Segment 1241 score:	0.4050549446987968
Segment 1242 score:	0.32580416644435417
Segment 1243 score:	0.31922329390807475
Segment 1244 score:	0.3155352796866568
Segment 1245 score:	0.46275154278784625
Segment 1246 score:	0.39574297181316154
Segment 1247 score:	0.3439838034660331
Segment 1248 score:	0.25827957315867417
Segment 1249 score:	0.3040600557546706
Segment 1250 score:	0.3134984232357637
Segment 1251 score:	0.2367857237860908
Segment 1252 score:	1.0
Segment 1253 score:	0.20275621106357258
Segment 1254 score:	0.35320061240776335
Segment 1255 score:	0.36948614342820363
Segment 1256 score:	0.3698321275681046
Segment 1257 score:	0.22829124274404192
Segment 1258 score:	0.23820641301334772
Segment 1259 score:	0.3677902805924161
Segment 1260 score:	0.23359464389731047
Segment 1261 score:	0.4337389988176927
Segment 1262 score:	0.3855415939608604
Segment 1263 score:	0.2205063439439454
Segment 1264 score:	0.20839641294535155
Segment 1265 score:	0.3392869502905276
Segment 1266 score:	0.39116255787654997
Segment 1267 score:	0.3357207471594553
Segment 1268 score:	0.10420786378762364
Segment 1269 score:	0.22039106591719435
Segment 1270 score:	0.34753307967056785
Segment 1271 score:	0.24149645786121263
Segment 1272 score:	0.22329895399933875
Segment 1273 score:	0.45511743842277175
Segment 1274 score:	0.2692735578127787
Segment 1275 score:	0.2833400475813282
Segment 1276 score:	0.35087081151647076
Segment 1277 score:	0.4371121235162405
Segment 1278 score:	0.3357263077090297
Segment 1279 score:	0.2180643076892972
Segment 1280 score:	0.39050263599936685
Segment 1281 score:	0.5294781392391987
Segment 1282 score:	0.42668804269553523
Segment 1283 score:	0.4101854098940749
Segment 1284 score:	0.17386689166698416
Segment 1285 score:	0.2670283361736041
Segment 1286 score:	0.5057340770541248
Segment 1287 score:	0.4316351788652432
Segment 1288 score:	0.590837665315869
Segment 1289 score:	0.317332054523992
Segment 1290 score:	0.49220566080287076
Segment 1291 score:	0.47988113717853953
Segment 1292 score:	0.3289572644279895
Segment 1293 score:	0.26802297302609646
Segment 1294 score:	0.462830495160899
Segment 1295 score:	0.48168157908194104
Segment 1296 score:	0.40367915330886983
Segment 1297 score:	0.3846093947430434
Segment 1298 score:	0.5877351735224352
Segment 1299 score:	0.26537203445684754
Segment 1300 score:	0.22274533504918717
Segment 1301 score:	0.5005385205055219
Segment 1302 score:	0.23578218749602098
Segment 1303 score:	0.36156183461312325
Segment 1304 score:	0.34369082445405436
Segment 1305 score:	0.383882737704438
Segment 1306 score:	0.30245341103118306
Segment 1307 score:	0.35154595564896723
Segment 1308 score:	0.3766739065016555
Segment 1309 score:	0.28991643035035125
Segment 1310 score:	0.4010212689453999
Segment 1311 score:	0.28903166214870585
Segment 1312 score:	0.3045997549134281
Segment 1313 score:	0.4099987185027534
Segment 1314 score:	0.2233676265554817
Segment 1315 score:	0.178246641794306
Segment 1316 score:	0.39030377155585344
Segment 1317 score:	0.38669152940656115
Segment 1318 score:	0.42046074606024525
Segment 1319 score:	0.1439891872771123
Segment 1320 score:	0.37975898227512506
Segment 1321 score:	0.29534866141689564
Segment 1322 score:	0.14792533578869738
Segment 1323 score:	0.2529737782891725
Segment 1324 score:	0.4460409243737264
Segment 1325 score:	0.2727703924339228
Segment 1326 score:	0.35711669922738615
Segment 1327 score:	0.33857639723293514
Segment 1328 score:	0.33242959080261264
Segment 1329 score:	0.14177941440633862
Segment 1330 score:	0.21413629199609616
Segment 1331 score:	0.4178597680848371
Segment 1332 score:	0.1797752808988764
Segment 1333 score:	0.296396430818233
Segment 1334 score:	0.31172109421230904
Segment 1335 score:	0.3010603554274454
Segment 1336 score:	0.21039751812598714
Segment 1337 score:	0.2594716851532362
Segment 1338 score:	0.39224927922677255
Segment 1339 score:	0.2331886587043638
Segment 1340 score:	0.14463594475200015
Segment 1341 score:	0.3305651978622351
Segment 1342 score:	0.4345756619790016
Segment 1343 score:	0.37094578639881576
Segment 1344 score:	1.0
Segment 1345 score:	0.4022473019390926
Segment 1346 score:	0.19119057189621477
Segment 1347 score:	0.59340374958164
Segment 1348 score:	0.29912404138434234
Segment 1349 score:	0.30783652442707904
Segment 1350 score:	0.3958732394427667
Segment 1351 score:	0.3878683822863389
Segment 1352 score:	0.15517241379310348
Segment 1353 score:	0.15788211027464286
Segment 1354 score:	0.343488294721836
Segment 1355 score:	0.4490720987280113
Segment 1356 score:	0.42656092294236747
Segment 1357 score:	0.2282676369465832
Segment 1358 score:	1.0
Segment 1359 score:	0.49440762446037556
Segment 1360 score:	0.27165281763112276
Segment 1361 score:	0.26873117413351644
Segment 1362 score:	0.5029655216878556
Segment 1363 score:	0.3827358098065628
Segment 1364 score:	0.27491779109198594
Segment 1365 score:	0.5691208450286628
Segment 1366 score:	0.40248746063876306
Segment 1367 score:	0.2973012763191449
Segment 1368 score:	0.22978975558731343
Segment 1369 score:	0.2993664197276253
Segment 1370 score:	0.5086189816140443
Segment 1371 score:	0.3136421568664418
Segment 1372 score:	0.1677747649139283
Segment 1373 score:	0.22146960887397815
Segment 1374 score:	0.41579284643860714
Segment 1375 score:	0.32922643173497057
Segment 1376 score:	0.19858156028368795
Segment 1377 score:	0.28716921304787707
Segment 1378 score:	0.5592559635513895
Segment 1379 score:	0.5458017240660435
Segment 1380 score:	0.2577008850295334
Segment 1381 score:	0.5458017240660435
Segment 1382 score:	0.2525974489680631
Segment 1383 score:	0.3254520917056998
Segment 1384 score:	0.2667938795897653
Segment 1385 score:	0.35519022612792217
Segment 1386 score:	0.290171552836319
Segment 1387 score:	1.0
Segment 1388 score:	0.5750708430229183
Segment 1389 score:	0.448655800197215
Segment 1390 score:	0.24516594562592647
Segment 1391 score:	0.38449467846254815
Segment 1392 score:	0.27935470583516187
Segment 1393 score:	0.2886337894692165
Segment 1394 score:	0.23158135149168324
Segment 1395 score:	0.3529849746757158
Segment 1396 score:	0.3234068015819094
Segment 1397 score:	0.4413551346637385
Segment 1398 score:	0.17888198757763976
Segment 1399 score:	0.3094223392948803
Segment 1400 score:	0.4538029569374524
Segment 1401 score:	0.38457325989630736
Segment 1402 score:	0.39051027753570733
Segment 1403 score:	0.31913740533381396
Segment 1404 score:	1.0
Segment 1405 score:	0.29737365518886505
Segment 1406 score:	0.15148936106854843
Segment 1407 score:	0.4287079061361443
Segment 1408 score:	0.4243372453504761
Segment 1409 score:	0.24952813994776368
Segment 1410 score:	0.45715659370051376
Segment 1411 score:	0.3708969944858166
Segment 1412 score:	0.379833707150283
Segment 1413 score:	0.2646908802527844
Segment 1414 score:	0.2728899845902304
Segment 1415 score:	1.0
Segment 1416 score:	0.12874915451115357
Segment 1417 score:	0.2795772999770859
Segment 1418 score:	0.29763553158623374
Segment 1419 score:	0.39531282374261417
Segment 1420 score:	0.4172667673691315
Segment 1421 score:	0.32437702210633335
Segment 1422 score:	0.12800699272666763
Segment 1423 score:	0.41972069873996887
Segment 1424 score:	0.43830720139091794
Segment 1425 score:	0.4228093502615368
Segment 1426 score:	0.3467876041777946
Segment 1427 score:	0.33925402132267435
Segment 1428 score:	1.0
Segment 1429 score:	0.15171070387278812
Segment 1430 score:	0.38907811946817494
Segment 1431 score:	0.2745105200536515
Segment 1432 score:	0.35607176130781976
Segment 1433 score:	0.21367488834653933
Segment 1434 score:	0.46461321426589264
Segment 1435 score:	0.41350261431419155
Segment 1436 score:	0.34481050665916657
Segment 1437 score:	0.25014047418286667
Segment 1438 score:	0.3262724311738579
Segment 1439 score:	0.429138326666939
Segment 1440 score:	0.47356216620752933
Segment 1441 score:	0.36734406209490045
Segment 1442 score:	0.30522023132416964
Segment 1443 score:	0.39023413588888844
Segment 1444 score:	0.3623010483351076
Segment 1445 score:	0.2990681271286411
Segment 1446 score:	0.3334070124182675
Segment 1447 score:	0.24091367545280754
Segment 1448 score:	1.0
Segment 1449 score:	0.40181383573216234
Segment 1450 score:	0.21869800522546354
Segment 1451 score:	0.30905974272025954
Segment 1452 score:	0.39747344132152235
Segment 1453 score:	0.28046980434771573
Segment 1454 score:	0.36863596446896896
Segment 1455 score:	0.2921421577343769
Segment 1456 score:	0.22020232646419263
Segment 1457 score:	0.3624595469255663
Segment 1458 score:	1.0
Segment 1459 score:	0.22857142857142856
Segment 1460 score:	0.3339717896511606
Segment 1461 score:	0.2777776894343811
Segment 1462 score:	0.3864575253685419
Segment 1463 score:	0.46210595766684787
Segment 1464 score:	0.3213242571652418
Segment 1465 score:	0.32725017064523426
Segment 1466 score:	0.35038351447567
Segment 1467 score:	0.2656582415043673
Segment 1468 score:	0.34164127354740154
Segment 1469 score:	0.4686497829355461
Segment 1470 score:	0.34345846937053276
Segment 1471 score:	0.2093228414572573
Segment 1472 score:	0.4003793016646166
Segment 1473 score:	0.45033972330410177
Segment 1474 score:	0.3940657349661973
Segment 1475 score:	0.423167817911901
Segment 1476 score:	0.261081454443485
Segment 1477 score:	0.33624405590711054
Segment 1478 score:	0.4145144524289829
Segment 1479 score:	0.37068231332408497
Segment 1480 score:	0.3134935710310749
Segment 1481 score:	0.4369647466852187
Segment 1482 score:	0.30780791880874425
Segment 1483 score:	0.3744898101336542
Segment 1484 score:	0.26342125669042626
Segment 1485 score:	0.4921841426206136
Segment 1486 score:	0.35382937927579666
Segment 1487 score:	0.3905510020824771
Segment 1488 score:	0.39567391405673213
Segment 1489 score:	0.40171110947983174
Segment 1490 score:	0.09155598534892805
Segment 1491 score:	0.46623366056649385
Segment 1492 score:	0.48687998944445676
Segment 1493 score:	0.4262602663212796
Segment 1494 score:	0.35136515978710503
Segment 1495 score:	0.29706699822423693
Segment 1496 score:	0.21204202187412666
Segment 1497 score:	0.386243119546575
Segment 1498 score:	0.40717462394860215
Segment 1499 score:	0.26342443496512735
Segment 1500 score:	0.3190151654182235
Segment 1501 score:	0.37735437067537475
Segment 1502 score:	0.36323504504744547
Segment 1503 score:	0.20607620295512072
Segment 1504 score:	0.41784293490182417
Segment 1505 score:	0.27569203175597035
Segment 1506 score:	0.3736637489065795
Segment 1507 score:	0.4172193558953384
Segment 1508 score:	0.43581297279901027
Segment 1509 score:	0.44306212597447714
Segment 1510 score:	0.30722133585712347
Segment 1511 score:	0.39866192660927435
Segment 1512 score:	0.3880905400990031
Segment 1513 score:	0.2908584996868387
Segment 1514 score:	0.19787985865724383
Segment 1515 score:	0.37382993827799016
Segment 1516 score:	0.2670343255452071
Segment 1517 score:	0.37100556273578683
Segment 1518 score:	0.40111991078902626
Segment 1519 score:	0.22139690265350087
Segment 1520 score:	0.35516933474050594
Segment 1521 score:	0.4289131118946112
Segment 1522 score:	0.43275965069729294
Segment 1523 score:	0.48765246987358984
Segment 1524 score:	0.3360668578443541
Segment 1525 score:	0.4648181177612231
Segment 1526 score:	0.5068744511448323
Segment 1527 score:	0.4268526891816529
Segment 1528 score:	0.22188202900223514
Segment 1529 score:	0.24877669376766248
Segment 1530 score:	0.42077184873891915
Segment 1531 score:	0.3811240774730383
Segment 1532 score:	0.27243578296098103
Segment 1533 score:	0.2184962846349243
Segment 1534 score:	0.44874602974115435
Segment 1535 score:	0.3397995483636718
Segment 1536 score:	0.32413675303233547
Segment 1537 score:	0.5604628979913003
Segment 1538 score:	0.40448743872376114
Segment 1539 score:	0.37932312254839073
Segment 1540 score:	0.3194023854043442
Segment 1541 score:	0.4286681183591053
Segment 1542 score:	0.32235375964696816
Segment 1543 score:	0.40276957257082024
Segment 1544 score:	0.2808390767830562
Segment 1545 score:	0.5433445139257173
Segment 1546 score:	0.47069459581084716
Segment 1547 score:	0.28011018686389766
Segment 1548 score:	0.2738843545849779
Segment 1549 score:	0.3625721899468482
Segment 1550 score:	0.3639572417459155
Segment 1551 score:	0.277484450967326
Segment 1552 score:	1.0
Segment 1553 score:	0.14745813327058552
Segment 1554 score:	0.41544273462263714
Segment 1555 score:	0.5251161725635044
Segment 1556 score:	0.46606441873444543
Segment 1557 score:	0.5028656115040683
Segment 1558 score:	0.44674646035860116
Segment 1559 score:	0.3494065120348492
Segment 1560 score:	0.40930474581023324
Segment 1561 score:	0.3318489829368976
Segment 1562 score:	0.3904298073757299
Segment 1563 score:	0.3036015150519783
Segment 1564 score:	0.3329600861281626
Segment 1565 score:	0.49842835222361725
Segment 1566 score:	0.5282926747693966
Segment 1567 score:	0.26660120305469837
Segment 1568 score:	0.22480269033071346
Segment 1569 score:	0.25130710180493127
Segment 1570 score:	0.33124112082626417
Segment 1571 score:	0.45361666277730095
Segment 1572 score:	0.5009804047171585
Segment 1573 score:	0.3453783414282558
Segment 1574 score:	0.18861561787042952
Segment 1575 score:	0.24840158350772934
Segment 1576 score:	1.0
Segment 1577 score:	0.12620007613503914
Segment 1578 score:	0.18949630509768042
Segment 1579 score:	0.3417596043302967
Segment 1580 score:	0.2953392746386503
Segment 1581 score:	0.12733563154510882
Segment 1582 score:	0.34833460229827495
Segment 1583 score:	0.18314551155860437
Segment 1584 score:	0.2773548704477992
Segment 1585 score:	0.15981332547664664
Segment 1586 score:	0.2647880416407065
Segment 1587 score:	0.3453624175275571
Segment 1588 score:	0.2608706936190874
Segment 1589 score:	0.33294297237179976
Segment 1590 score:	0.2195889900740168
Segment 1591 score:	0.4388918224386105
Segment 1592 score:	0.22038567493112948
Segment 1593 score:	0.311461824508813
Segment 1594 score:	0.33180597187730715
Segment 1595 score:	0.3629875082230015
Segment 1596 score:	0.2891837953864889
Segment 1597 score:	0.34579838170473
Segment 1598 score:	0.2022129639698181
Segment 1599 score:	0.22740522172001712
Segment 1600 score:	0.3622829916144915
Segment 1601 score:	0.22714617009847332
Segment 1602 score:	0.3516586468876016
Segment 1603 score:	0.2396403520083452
Segment 1604 score:	0.34515039693715593
Segment 1605 score:	0.394529114215886
Segment 1606 score:	0.49052148528745493
Segment 1607 score:	0.40406190820251686
Segment 1608 score:	0.38497544273759704
Segment 1609 score:	0.29343361605928764
Segment 1610 score:	0.22373286277392296
Segment 1611 score:	0.47654204647203613
Segment 1612 score:	0.34301513106738374
Segment 1613 score:	0.3022628916498086
Segment 1614 score:	0.3170443818886771
Segment 1615 score:	0.23682792710903144
Segment 1616 score:	0.572622344714645
Segment 1617 score:	1.0
Segment 1618 score:	0.5575643679126147
Segment 1619 score:	0.29255281837090014
Segment 1620 score:	0.24671979941019864
Segment 1621 score:	0.4853115335316602
Segment 1622 score:	0.40566917969519606
Segment 1623 score:	0.08913649025069637
Segment 1624 score:	0.3557239642050257
Segment 1625 score:	0.25825393339035063
Segment 1626 score:	0.3264401358197267
Segment 1627 score:	0.30223201100039343
Segment 1628 score:	0.30623872143916636
Segment 1629 score:	0.1661273084040098
Segment 1630 score:	0.2919607374014012
Segment 1631 score:	0.5283160627509073
Segment 1632 score:	0.32178249485589194
Segment 1633 score:	0.43762067578281655
Segment 1634 score:	0.29083046299437915
Segment 1635 score:	0.4916824918423386
Segment 1636 score:	0.2475695477791681
Segment 1637 score:	0.5059255235541665
Segment 1638 score:	0.2582805664823982
Segment 1639 score:	0.2214075211703841
Segment 1640 score:	0.3025776980922503
Segment 1641 score:	0.33984663127061726
Segment 1642 score:	0.17810905356907009
Segment 1643 score:	0.2452294166360868
Segment 1644 score:	0.34272262745996446
Segment 1645 score:	0.2697672372920789
Segment 1646 score:	0.19095545127352767
Segment 1647 score:	0.26849048919052526
Segment 1648 score:	0.1832526478596541
Segment 1649 score:	0.36064224550980284
Segment 1650 score:	0.3106926977162979
Segment 1651 score:	0.31467930795822996
Segment 1652 score:	0.31133636514448265
Segment 1653 score:	0.3535775434186609
Segment 1654 score:	0.3055530426265321
Segment 1655 score:	0.25679021799537716
Segment 1656 score:	0.31700317942722567
Segment 1657 score:	0.4262602663212796
Segment 1658 score:	0.21473763518784936
Segment 1659 score:	0.25614126294158013
Segment 1660 score:	0.14118277372775
Segment 1661 score:	0.3626645117444421
Segment 1662 score:	0.2081027967470683
Segment 1663 score:	0.4626891847447819
Segment 1664 score:	0.30846105163258
Segment 1665 score:	0.48458612900011955
Segment 1666 score:	0.2706603980143954
Segment 1667 score:	0.4072376124696947
Segment 1668 score:	0.3273759642214246
Segment 1669 score:	0.3391502932325735
Segment 1670 score:	0.2679549840499257
Segment 1671 score:	0.32435665334386726
Segment 1672 score:	0.27858473460116234
Segment 1673 score:	0.4651603760153952
Segment 1674 score:	0.44938636342195315
Segment 1675 score:	0.40675453947719453
Segment 1676 score:	0.36011681325273753
Segment 1677 score:	0.41518513586389044
Segment 1678 score:	0.17744039458526134
Segment 1679 score:	0.2139613969149618
Segment 1680 score:	0.44874043905455174
Segment 1681 score:	0.2885029112492396
Segment 1682 score:	0.37306426937673026
Segment 1683 score:	0.5108539677228316
Segment 1684 score:	0.10955401417492941
Segment 1685 score:	0.28263231516513454
Segment 1686 score:	0.3371385938461896
Segment 1687 score:	0.4607222356524168
Segment 1688 score:	0.4836230865160803
Segment 1689 score:	0.40304065369285136
Segment 1690 score:	0.288525065199231
Segment 1691 score:	0.33094969099780147
Segment 1692 score:	0.465342427369831
Segment 1693 score:	0.17518248175182483
Segment 1694 score:	0.5323268301015207
Segment 1695 score:	0.3138202791591854
Segment 1696 score:	0.26782837825062544
Segment 1697 score:	0.3010793092069027
Segment 1698 score:	0.3104270752379045
Segment 1699 score:	0.4034574093979295
Segment 1700 score:	0.3925241920462699
Segment 1701 score:	0.47540146817823586
Segment 1702 score:	0.36383109974331823
Segment 1703 score:	0.46210595766684787
Segment 1704 score:	0.274805314146992
Segment 1705 score:	0.26892028826028175
Segment 1706 score:	0.1984285012196997
Segment 1707 score:	0.4465663172925206
Segment 1708 score:	0.26858893009839657
Segment 1709 score:	0.3379995299220036
Segment 1710 score:	0.15648467724512297
Segment 1711 score:	1.0
Segment 1712 score:	0.3508295109529388
Segment 1713 score:	0.29322102682127593
Segment 1714 score:	0.24711439947140998
Segment 1715 score:	0.48891174146671385
Segment 1716 score:	0.2848418827328483
Segment 1717 score:	0.2592668803955192
Segment 1718 score:	0.46491256495962624
Segment 1719 score:	0.2805677176249289
Segment 1720 score:	0.4599299734100537
Segment 1721 score:	0.37798607903348524
Segment 1722 score:	0.21117448204440348
Segment 1723 score:	0.28306350342063735
Segment 1724 score:	0.42339348019523637
Segment 1725 score:	0.5055081621546312
Segment 1726 score:	0.1415575910667258
Segment 1727 score:	0.24356600742868476
Segment 1728 score:	0.377499620607097
Segment 1729 score:	0.2195386148938708
Segment 1730 score:	1.0
Segment 1731 score:	0.10975885904381237
Segment 1732 score:	0.4561301812414779
Segment 1733 score:	0.395952414073463
Segment 1734 score:	0.1801755815991933
Segment 1735 score:	0.4023420278774702
Segment 1736 score:	0.36619927949182723
Segment 1737 score:	0.33507211806317666
Segment 1738 score:	0.34172712113346526
Segment 1739 score:	0.32538763618074273
Segment 1740 score:	0.3360897904023626
Segment 1741 score:	0.3977857055205389
Segment 1742 score:	0.3425650850759433
Segment 1743 score:	0.3920505615854916
Segment 1744 score:	0.2661155402015859
Segment 1745 score:	0.31716141773606704
Segment 1746 score:	0.4262602663212796
Segment 1747 score:	0.23968550107031322
Segment 1748 score:	0.33502302093319597
Segment 1749 score:	0.4115853726617623
Segment 1750 score:	0.4429551130668193
Segment 1751 score:	0.43374119452330007
Segment 1752 score:	0.20799336557860043
Segment 1753 score:	0.3594345971653143
Segment 1754 score:	0.49782976443348775
Segment 1755 score:	0.22332607575069766
Segment 1756 score:	0.42906679467531395
Segment 1757 score:	0.3134443320468812
Segment 1758 score:	0.3343212794138903
Segment 1759 score:	0.4127582478875503
Segment 1760 score:	0.3957026785983761
Segment 1761 score:	0.3039391444433309
Segment 1762 score:	0.3169372165077041
Segment 1763 score:	0.4461812991728999
Segment 1764 score:	0.34637581355621877
Segment 1765 score:	1.0
Segment 1766 score:	0.3720869779690869
Segment 1767 score:	0.28986603090929824
Segment 1768 score:	0.32676848804792663
Segment 1769 score:	0.12532637075718014
Segment 1770 score:	0.28899465950776093
Segment 1771 score:	0.24747877234278537
Segment 1772 score:	0.23990531883279492
Segment 1773 score:	0.41696191787850817
Segment 1774 score:	0.44023431800420487
Segment 1775 score:	0.2854778387022757
Segment 1776 score:	0.3654927901049088
Segment 1777 score:	0.24454148471615722
Segment 1778 score:	0.27087357366494075
Segment 1779 score:	0.28429343817905495
Segment 1780 score:	0.35445866509415996
Segment 1781 score:	0.21421390216660616
Segment 1782 score:	0.30641203622453433
Segment 1783 score:	0.4536493338479273
Segment 1784 score:	0.33685598535064354
Segment 1785 score:	0.22619506486631055
Segment 1786 score:	0.3684181606381366
Segment 1787 score:	0.20667384284176535
Segment 1788 score:	0.3521379923377771
Segment 1789 score:	0.27366900013414497
Segment 1790 score:	0.47275744537616216
Segment 1791 score:	0.13093209478168535
Segment 1792 score:	0.27916219111588103
Segment 1793 score:	0.5099509430324125
Segment 1794 score:	0.2734442507073943
Segment 1795 score:	0.4886464627711354
Segment 1796 score:	0.5401436307241425
Segment 1797 score:	0.3300596513014149
Segment 1798 score:	0.2856544245384133
Segment 1799 score:	0.3902310244460502
Segment 1800 score:	0.39224927922677255
Segment 1801 score:	0.3155595359073551
Segment 1802 score:	0.29099004781655113
Segment 1803 score:	0.209688790480784
Segment 1804 score:	0.1745928338762215
Segment 1805 score:	0.18407252807588
Segment 1806 score:	0.2099924435087181
Segment 1807 score:	0.5801880529980741
Segment 1808 score:	0.38918437346123086
Segment 1809 score:	0.3797189776598687
Segment 1810 score:	0.4090488072577861
Segment 1811 score:	0.2378256478526951
Segment 1812 score:	0.4339003083730082
Segment 1813 score:	0.3002655853929558
Segment 1814 score:	0.31307125032798183
Segment 1815 score:	0.36283066242514794
Segment 1816 score:	0.444148062557748
Segment 1817 score:	0.34944485173182477
Segment 1818 score:	0.4094031324760681
Segment 1819 score:	0.3548775701684796
Segment 1820 score:	0.31408750411224257
Segment 1821 score:	0.5075522525549482
Segment 1822 score:	0.09169470176031178
Segment 1823 score:	1.0
Segment 1824 score:	0.34400288837382365
Segment 1825 score:	0.34610131280811146
Segment 1826 score:	0.5600313690806196
Segment 1827 score:	0.223223937677983
Segment 1828 score:	0.5235903179538822
Segment 1829 score:	0.40023266089110643
Segment 1830 score:	0.24620096989838053
Segment 1831 score:	0.38891821838695356
Segment 1832 score:	0.33842779283666224
Segment 1833 score:	0.26582010582010585
Segment 1834 score:	0.4434404044838814
Segment 1835 score:	0.29962603339421134
Segment 1836 score:	0.5529490891487959
Segment 1837 score:	0.41148945321621294
Segment 1838 score:	0.32262329730860384
Segment 1839 score:	0.26383544105629175
Segment 1840 score:	0.24177344939817672
Segment 1841 score:	0.2999937876161182
Segment 1842 score:	0.5101481514866822
Segment 1843 score:	0.47045304055254866
Segment 1844 score:	0.38556464833024556
Segment 1845 score:	0.36587680227555497
Segment 1846 score:	0.44916469830307676
Segment 1847 score:	0.3753900235163346
Segment 1848 score:	0.39639294837038075
Segment 1849 score:	0.3341564691584142
Segment 1850 score:	0.34678628355647567
Segment 1851 score:	0.1657870536066868
Segment 1852 score:	0.30632122614658147
Segment 1853 score:	0.3020336743948894
Segment 1854 score:	0.29263470612223136
Segment 1855 score:	0.4037549947313872
Segment 1856 score:	0.31442978106922537
Segment 1857 score:	0.275640343456495
Segment 1858 score:	0.3766646235312583
Segment 1859 score:	0.19621731890027785
Segment 1860 score:	0.3159153698563657
Segment 1861 score:	0.29539090790541
Segment 1862 score:	0.41788810219733313
Segment 1863 score:	0.16057314563816993
Segment 1864 score:	0.5520824401562984
Segment 1865 score:	0.15189873417721522
Segment 1866 score:	0.21751081013416848
Segment 1867 score:	0.21273107290998255
Segment 1868 score:	0.14698162729658792
Segment 1869 score:	0.24291292976423542
Segment 1870 score:	0.5139721908112589
Segment 1871 score:	0.3072098740993874
Segment 1872 score:	0.4624412344950585
Segment 1873 score:	0.3637037678432204
Segment 1874 score:	0.3532715827474419
Segment 1875 score:	0.40120432154466373
Segment 1876 score:	0.14638035348942544
Segment 1877 score:	0.30468898741151995
Segment 1878 score:	0.19063426419170162
Segment 1879 score:	0.3510017809219156
Segment 1880 score:	0.19912054957470604
Segment 1881 score:	0.30676033340883285
Segment 1882 score:	0.5726134738909183
Segment 1883 score:	0.28502734009326364
Segment 1884 score:	0.5801880529980741
Segment 1885 score:	0.33403472868694095
Segment 1886 score:	0.35316740846111333
Segment 1887 score:	0.3499329784410927
Segment 1888 score:	0.30907665889306396
Segment 1889 score:	0.43054298545703845
Segment 1890 score:	0.34810539203451696
Segment 1891 score:	0.4038696601708773
Segment 1892 score:	0.13965087281795516
Segment 1893 score:	0.3664084171355901
Segment 1894 score:	0.46824023462496134
Segment 1895 score:	0.3004392365983006
Segment 1896 score:	0.38358241766350964
Segment 1897 score:	0.22860971218311896
Segment 1898 score:	0.11982551094473654
Segment 1899 score:	0.31245766935229796
Segment 1900 score:	0.3404964032977737
Segment 1901 score:	0.3626645117444421
Segment 1902 score:	0.2729675493077333
Segment 1903 score:	0.4144078160355784
Segment 1904 score:	0.5425721692008763
Segment 1905 score:	0.27690903668832223
Segment 1906 score:	0.24600361142984115
Segment 1907 score:	0.3427407555756238
Segment 1908 score:	0.2835059471591507
Segment 1909 score:	0.28762904379838955
Segment 1910 score:	0.5007782952838703
Segment 1911 score:	0.2669592582895153
Segment 1912 score:	0.413084668272121
Segment 1913 score:	0.42174013818892075
Segment 1914 score:	0.3891997240483311
Segment 1915 score:	0.10084033613445378
Segment 1916 score:	0.4490720987280113
Segment 1917 score:	0.3454175317222634
Segment 1918 score:	0.290280915228587
Segment 1919 score:	0.20648682837743842
Segment 1920 score:	0.35463293669842766
Segment 1921 score:	0.25632599607316137
Segment 1922 score:	0.11383524277289618
Segment 1923 score:	0.32588660078411436
Segment 1924 score:	0.3124475379417674
Segment 1925 score:	0.565914596577206
Segment 1926 score:	0.2217580920166512
Segment 1927 score:	0.43685689904975744
Segment 1928 score:	0.4165038910329121
Segment 1929 score:	0.34345015149137414
Segment 1930 score:	0.17297297297297298
Segment 1931 score:	0.2879886759871585
Segment 1932 score:	0.25155189787143606
Segment 1933 score:	0.48476916907901196
Segment 1934 score:	0.31973302947939125
Segment 1935 score:	0.3916510112333078
Segment 1936 score:	0.36556351685382055
Segment 1937 score:	0.15164116254677
Segment 1938 score:	0.28555149639814703
Segment 1939 score:	0.408829565755397
Segment 1940 score:	0.45888078975741076
Segment 1941 score:	0.45369131684570607
Segment 1942 score:	0.19243980134010732
Segment 1943 score:	0.44951896558655585
Segment 1944 score:	0.2602672227796429
Segment 1945 score:	0.3061325559281207
Segment 1946 score:	0.4324494236409874
Segment 1947 score:	0.2726559780865635
Segment 1948 score:	0.47634009793447557
Segment 1949 score:	0.2334774619131099
Segment 1950 score:	0.44338597005216346
Segment 1951 score:	0.48189739093558404
Segment 1952 score:	0.07688771929656152
Segment 1953 score:	0.3571028802221349
Segment 1954 score:	0.38453257453987116
Segment 1955 score:	0.4263623093672407
Segment 1956 score:	0.5160286329460081
Segment 1957 score:	0.4102090426174444
Segment 1958 score:	0.3913071399137617
Segment 1959 score:	0.31176160971114414
Segment 1960 score:	0.5206965804161193
Segment 1961 score:	0.3668170370127077
Segment 1962 score:	0.3421140481863735
Segment 1963 score:	0.32235811107199813
Segment 1964 score:	0.22553897180762852
Segment 1965 score:	0.25224182409245577
Segment 1966 score:	0.20349893285592047
Segment 1967 score:	0.35336906975105103
Segment 1968 score:	0.18787244317652038
Segment 1969 score:	0.5017804588748823
Segment 1970 score:	0.34350816575257864
Segment 1971 score:	0.2377582579582158
Segment 1972 score:	0.3525349501084352
Segment 1973 score:	0.4153508403968979
Segment 1974 score:	0.2456140350877193
Segment 1975 score:	0.2241682273675085
Segment 1976 score:	0.28329666940368564
Segment 1977 score:	0.4665871501451119
Segment 1978 score:	0.36084582589033093
Segment 1979 score:	0.14782370694626226
Segment 1980 score:	0.24967239694824303
Segment 1981 score:	0.4778974590989764
Segment 1982 score:	0.30983216037306505
Segment 1983 score:	0.3138691824376677
Segment 1984 score:	0.31921058044477824
Segment 1985 score:	0.3067706041250249
Segment 1986 score:	0.35786786804431464
Segment 1987 score:	0.2923419416284077
Segment 1988 score:	0.3926016297696888
Segment 1989 score:	0.3340601398441593
Segment 1990 score:	0.379046361699824
Segment 1991 score:	0.2902685772049824
Segment 1992 score:	1.0
Segment 1993 score:	0.2521732647968245
Segment 1994 score:	0.2604042286416008
Segment 1995 score:	0.2590018198505552
Segment 1996 score:	0.5093534523574827
Segment 1997 score:	0.5221005796597201
Segment 1998 score:	0.33539111738769034
Segment 1999 score:	0.38636069786837346
Segment 2000 score:	0.36328233238497604
Segment 2001 score:	0.2750535917895915
Segment 2002 score:	0.2494123058052324
Segment 2003 score:	0.23196552156335873
Segment 2004 score:	0.3903695799199202
Segment 2005 score:	0.2769204416091655
Segment 2006 score:	0.2981824813078156
Segment 2007 score:	0.24834460493863644
Segment 2008 score:	0.35240182558419403
Segment 2009 score:	0.39019544874081874
Segment 2010 score:	0.2947784941056589
Segment 2011 score:	0.17505154337997544
Segment 2012 score:	0.2739808950279461
Segment 2013 score:	0.4641470876073056
Segment 2014 score:	0.35272368672961835
Segment 2015 score:	0.2636470346228636
Segment 2016 score:	0.22475835196338786
Segment 2017 score:	0.2141636687451223
Segment 2018 score:	0.47035975915610373
Segment 2019 score:	0.2390271252921117
Segment 2020 score:	0.2761883664218507
Segment 2021 score:	0.34426642307915356
Segment 2022 score:	0.27422521912385805
Segment 2023 score:	0.42620891783716613
Segment 2024 score:	0.38384083523656476
Segment 2025 score:	0.2745710140223261
Segment 2026 score:	0.389484396989239
Segment 2027 score:	0.28064243542872136
Segment 2028 score:	0.26396786255861715
Segment 2029 score:	0.37872870533868014
Segment 2030 score:	0.25033939897894514
Segment 2031 score:	0.5128601329479903
Segment 2032 score:	0.4490720987280113
Segment 2033 score:	0.31727319927582415
Segment 2034 score:	0.16520153687982903
Segment 2035 score:	0.29923723276854264
Segment 2036 score:	0.21436170783317543
Segment 2037 score:	1.0
Segment 2038 score:	0.38049373104008377
Segment 2039 score:	0.2799778467980877
Segment 2040 score:	0.3530018499044368
Segment 2041 score:	0.32901831472902265
Segment 2042 score:	0.301864310538986
Segment 2043 score:	0.3024545243386931
Segment 2044 score:	0.5006517347283489
Segment 2045 score:	0.25840522686967493
Segment 2046 score:	0.3765575939660289
Segment 2047 score:	0.2952697878145422
Segment 2048 score:	0.23300970873786409
Segment 2049 score:	0.2994487745442729
Segment 2050 score:	0.07925255380895135
Segment 2051 score:	0.5283981486420264
Segment 2052 score:	0.37832897889264844
Segment 2053 score:	1.0
Segment 2054 score:	0.2698528231129041
Segment 2055 score:	0.5056664963781531
Segment 2056 score:	0.2698886081616105
Segment 2057 score:	0.3635149988360736
Segment 2058 score:	0.21052631578947367
Segment 2059 score:	0.2778970089085711
Segment 2060 score:	0.23996015412693017
Segment 2061 score:	0.3202865502471093
Segment 2062 score:	0.22011088388574365
Segment 2063 score:	0.3373602099621917
Segment 2064 score:	0.3987803493451169
Segment 2065 score:	0.3761363556257953
Segment 2066 score:	0.26494282110358114
Segment 2067 score:	0.32077779706414417
Segment 2068 score:	0.42002207762085475
Segment 2069 score:	0.19246561693113057
Segment 2070 score:	0.3273666000764456
Segment 2071 score:	0.2914488280883523
Segment 2072 score:	0.36266367433521823
Segment 2073 score:	0.2341463894620597
Segment 2074 score:	0.25458742812648927
Segment 2075 score:	0.18864023090919513
Segment 2076 score:	0.19662807110641817
Segment 2077 score:	0.3159055608590669
Segment 2078 score:	0.3424085144813397
Segment 2079 score:	0.36111766250746385
Segment 2080 score:	0.4237185362239157
Segment 2081 score:	0.09720448943551321
Segment 2082 score:	0.4026058741311546
Segment 2083 score:	0.5625199846626083
Segment 2084 score:	0.3582656391694421
Segment 2085 score:	0.3111361470354994
Segment 2086 score:	0.31901189232891547
Segment 2087 score:	0.3126592859950108
Segment 2088 score:	0.4138131453320201
Segment 2089 score:	0.547405344773515
Segment 2090 score:	0.2642505619517593
Segment 2091 score:	0.41773121702710686
Segment 2092 score:	0.5614719008553767
Segment 2093 score:	0.28867090928411754
Segment 2094 score:	0.30911571058578746
Segment 2095 score:	0.3103415357070393
Segment 2096 score:	0.3211918782112623
Segment 2097 score:	0.5152634820515523
Segment 2098 score:	0.40021650423597593
Segment 2099 score:	0.20006213073755993
Segment 2100 score:	0.28763738398051836
Segment 2101 score:	0.3801270461588318
Segment 2102 score:	0.39665276573664177
Segment 2103 score:	0.3438255250905387
Segment 2104 score:	0.30217921976581047
Segment 2105 score:	0.09192300983109326
Segment 2106 score:	0.36969600046137924
Segment 2107 score:	0.2546331024669241
Segment 2108 score:	0.25798478733102737
Segment 2109 score:	0.2609929078014185
Segment 2110 score:	0.3709684266289523
Segment 2111 score:	0.454288777328027
Segment 2112 score:	0.2315974118896124
Segment 2113 score:	0.48874864187983696
Segment 2114 score:	0.35434143653464645
Segment 2115 score:	0.22056020253691933
Segment 2116 score:	0.2484132028508568
Segment 2117 score:	0.1549925484351714
Segment 2118 score:	0.5401432034722892
Segment 2119 score:	0.45418063732192043
Segment 2120 score:	0.23399802804742018
Segment 2121 score:	0.293522612537883
Segment 2122 score:	0.3293682727605763
Segment 2123 score:	0.3858037579013005
Segment 2124 score:	0.43602534190601433
Segment 2125 score:	0.413365962113526
Segment 2126 score:	0.2940667922243673
Segment 2127 score:	0.31231079599276435
Segment 2128 score:	0.3418609681790888
Segment 2129 score:	0.23485009577039626
Segment 2130 score:	0.34393856638019027
Segment 2131 score:	0.2860282483435112
Segment 2132 score:	0.27439876936418245
Segment 2133 score:	0.32058178696530115
Segment 2134 score:	0.3488495401109862
Segment 2135 score:	0.46484933278642915
Segment 2136 score:	0.25016058863124785
Segment 2137 score:	0.2240067608205898
Segment 2138 score:	0.3119789140361906
Segment 2139 score:	0.4910385030424291
Segment 2140 score:	0.26871293420208325
Segment 2141 score:	0.25367503063072855
Segment 2142 score:	0.3984624277879211
Segment 2143 score:	0.29887710696368974
Segment 2144 score:	0.26952244967260075
Segment 2145 score:	0.43162869870327597
Segment 2146 score:	0.3783553689310554
Segment 2147 score:	0.21248093968049836
Segment 2148 score:	0.4200608289658522
Segment 2149 score:	0.19776586788624367
Segment 2150 score:	0.23628972065373272
Segment 2151 score:	0.25603229917970854
Segment 2152 score:	0.2850372613370005
Segment 2153 score:	0.3721826096308553
Segment 2154 score:	0.3378369633178644
Segment 2155 score:	0.5608046784348398
Segment 2156 score:	0.22345848615195224
Segment 2157 score:	0.2902698252346374
Segment 2158 score:	0.2948969730156767
Segment 2159 score:	0.35239371934455943
Segment 2160 score:	0.3516586468876016
Segment 2161 score:	0.25759087022153976
Segment 2162 score:	0.13309790836294447
Segment 2163 score:	0.34629823808644977
Segment 2164 score:	0.2606656524642262
Segment 2165 score:	0.2620110250929814
Segment 2166 score:	0.3558366592513246
Segment 2167 score:	0.19348448721242373
Segment 2168 score:	0.34013629184252275
Segment 2169 score:	0.5441464343276331
Segment 2170 score:	0.2452853654717166
Segment 2171 score:	0.24443422448383478
Segment 2172 score:	0.4243460073952335
Segment 2173 score:	0.3547679187433717
Segment 2174 score:	0.32194150799103066
Segment 2175 score:	0.32244157043767613
Segment 2176 score:	0.38156985110935265
Segment 2177 score:	0.38409891863390955
Segment 2178 score:	0.4411532450586055
Segment 2179 score:	0.409114305869425
Segment 2180 score:	0.4884141832549272
Segment 2181 score:	0.35228013986476026
Segment 2182 score:	0.3149546159157114
Segment 2183 score:	0.3621283411923281
Segment 2184 score:	0.28447825997431736
Segment 2185 score:	0.42857231690920167
Segment 2186 score:	0.3865330878584018
Segment 2187 score:	0.2556872781639727
Segment 2188 score:	0.27198027267894964
Segment 2189 score:	0.24561565215320716
Segment 2190 score:	0.3677907320222521
Segment 2191 score:	0.4286366464503552
Segment 2192 score:	0.2805898546603594
Segment 2193 score:	0.37503872576388003
Segment 2194 score:	0.4373838643539758
Segment 2195 score:	0.342111027806424
Segment 2196 score:	0.30875235304307685
Segment 2197 score:	0.3272781668328224
Segment 2198 score:	0.2081385698289659
Segment 2199 score:	0.39923194067300294
Segment 2200 score:	0.3077028462624698
Segment 2201 score:	0.305894150134656
Segment 2202 score:	0.32929746240318375
Segment 2203 score:	0.39120757364887515
Segment 2204 score:	0.6212213192182312
Segment 2205 score:	0.4696515080436276
Segment 2206 score:	0.279857218668459
Segment 2207 score:	0.24747310477653764
Segment 2208 score:	0.3467080821108389
Segment 2209 score:	0.294478527607362
Segment 2210 score:	0.3625173500415839
Segment 2211 score:	0.38244724580021583
Segment 2212 score:	0.4216975559944019
Segment 2213 score:	0.3435105006480001
Segment 2214 score:	0.37391293001525233
Segment 2215 score:	0.5206965804161193
Segment 2216 score:	0.38399579632184266
Segment 2217 score:	0.2255503720918545
Segment 2218 score:	0.37191499251132726
Segment 2219 score:	0.4729653107253221
Segment 2220 score:	0.22470520120872584
Segment 2221 score:	0.36600666432533524
Segment 2222 score:	0.22188202900223514
Segment 2223 score:	0.21750065315533484
Segment 2224 score:	0.28624324081314517
Segment 2225 score:	0.31739861509881
Segment 2226 score:	0.44586547404127574
Segment 2227 score:	0.26342884458655075
Segment 2228 score:	0.30781942655383576
Segment 2229 score:	0.1586464134603189
Segment 2230 score:	0.396416713309331
Segment 2231 score:	0.2592371640639987
Segment 2232 score:	0.47334477975125944
Segment 2233 score:	0.36411820778843423
Segment 2234 score:	0.48079902455437884
Segment 2235 score:	0.36990471390112317
Segment 2236 score:	0.35573911472792014
Segment 2237 score:	0.3363870859312152
Segment 2238 score:	0.34029305180069325
Segment 2239 score:	0.24661874572693288
Segment 2240 score:	0.3305401557717945
Segment 2241 score:	0.25407396109100944
Segment 2242 score:	0.3031020115384278
Segment 2243 score:	0.3489603831000482
Segment 2244 score:	0.3364009851571137
Segment 2245 score:	0.4154256284141538
Segment 2246 score:	0.3202254717468104
Segment 2247 score:	0.3296713389654246
Segment 2248 score:	0.2109913340201197
Segment 2249 score:	0.20504007103915994
Segment 2250 score:	0.4518932242666567
Segment 2251 score:	0.32653819428236375
Segment 2252 score:	0.40721889780575543
Segment 2253 score:	0.3824068115609779
Segment 2254 score:	0.371385151083336
Segment 2255 score:	0.3579118192516466
Segment 2256 score:	0.419296656256952
Segment 2257 score:	0.3138972064718139
Segment 2258 score:	0.276048670554416
Segment 2259 score:	0.3368040237441771
Segment 2260 score:	0.3884180832749953
Segment 2261 score:	0.2387846763959733
Segment 2262 score:	0.31703530882023045
Segment 2263 score:	0.3177371980446686
Segment 2264 score:	0.4325023533470577
Segment 2265 score:	0.47988113717853953
Segment 2266 score:	0.33982660218404415
Segment 2267 score:	0.2888177810062396
Segment 2268 score:	0.33051391827847965

System level statistics:


           Test Matches                  Reference Matches
Stage      Content  Function    Total    Content  Function    Total
1            22823      9986    32809      22823      9986    32809
2               76         1       77         76         1       77
3               98       164      262        103       159      262
4              500      1013     1513        634      1034     1668
Total        23497     11164    34661      23636     11180    34816

Test words:             49103
Reference words:        53793
Chunks:                 16004
Precision:              0.7148329439356117
Recall:                 0.6494276267627728
f1:                     0.6805624560039926
fMean:                  0.6584647939202608
Fragmentation penalty:  0.5138480899956049

Final score:            0.32011391723498517
